WK7 D1 HW
…
## [1] "2017-04-22 18:01:18 EDT"

nyc_date2 <- with_tz(date2, tzone = "America/New_York")
nyc_date2

## [1] "2001-11-07 05:09:56 EST"

1.5

flights %>% 
  mutate(departure_date = make_datetime(year, month, day, hour, minute)) 

## # A tibble: 336,776 x 20
##     year month   day dep_time sched_dep_time dep_delay arr_time sched_arr_time
##    <int> <int> <int>    <int>          <int>     <dbl>    <int>          <int>
##  1  2013     1     1      517            515         2      830            819
##  2  2013     1     1      533            529         4      850            830
##  3  2013     1     1      542            540         2      923            850
##  4  2013     1     1      544            545        -1     1004           1022
##  5  2013     1     1      554            600        -6      812            837
##  6  2013     1     1      554            558        -4      740            728
##  7  2013     1     1      555            600        -5      913            854
##  8  2013     1     1      557            600        -3      709            723
##  9  2013     1     1      557            600        -3      838            846
## 10  2013     1     1      558            600        -2      753            745
## #  with 336,766 more rows, and 12 more variables: arr_delay <dbl>,
## #   carrier <chr>, flight <int>, tailnum <chr>, origin <chr>, dest <chr>,
## #   air_time <dbl>, distance <dbl>, hour <dbl>, minute <dbl>, time_hour <dttm>,
## #   departure_date <dttm>
…
Hourly observations from 1st Jan 2013 to 30th Dec 2013, taken at Newark Liberty International Airport, John F. Kennedy International Airport and LaGuardia Airport.

2.7

weather_tsibble <- weather_selected %>% 
  as_tsibble(key = origin, index = time_hour)
weather_tsibble

## # A tsibble: 26,115 x 6 [1h] <America/New_York>
## # Key:       origin [3]
##    time_hour           origin  temp  dewp humid precip
##    <dttm>              <chr>  <dbl> <dbl> <dbl>  <dbl>
##  1 2013-01-01 01:00:00 EWR     39.0  26.1  59.4      0
##  2 2013-01-01 02:00:00 EWR     39.0  27.0  61.6      0
##  3 2013-01-01 03:00:00 EWR     39.0  28.0  64.4      0
##  4 2013-01-01 04:00:00 EWR     39.9  28.0  62.2      0
##  5 2013-01-01 05:00:00 EWR     39.0  28.0  64.4      0
##  6 2013-01-01 06:00:00 EWR     37.9  28.0  67.2      0
##  7 2013-01-01 07:00:00 EWR     39.0  28.0  64.4      0
##  8 2013-01-01 08:00:00 EWR     39.9  28.0  62.2      0
##  9 2013-01-01 09:00:00 EWR     39.9  28.0  62.2      0
## 10 2013-01-01 10:00:00 EWR     41    28.0  59.6      0
## #  with 26,105 more rows

2.8

weather_tsibble <- weather_tsibble %>% 
  mutate(year = year(time_hour),
         month = month(time_hour, label = T))
weather_tsibble

## # A tsibble: 26,115 x 8 [1h] <America/New_York>
## # Key:       origin [3]
##    time_hour           origin  temp  dewp humid precip  year month
##    <dttm>              <chr>  <dbl> <dbl> <dbl>  <dbl> <dbl> <ord>
##  1 2013-01-01 01:00:00 EWR     39.0  26.1  59.4      0  2013 Jan  
##  2 2013-01-01 02:00:00 EWR     39.0  27.0  61.6      0  2013 Jan  
##  3 2013-01-01 03:00:00 EWR     39.0  28.0  64.4      0  2013 Jan  
##  4 2013-01-01 04:00:00 EWR     39.9  28.0  62.2      0  2013 Jan  
##  5 2013-01-01 05:00:00 EWR     39.0  28.0  64.4      0  2013 Jan  
##  6 2013-01-01 06:00:00 EWR     37.9  28.0  67.2      0  2013 Jan  
##  7 2013-01-01 07:00:00 EWR     39.0  28.0  64.4      0  2013 Jan  
##  8 2013-01-01 08:00:00 EWR     39.9  28.0  62.2      0  2013 Jan  
##  9 2013-01-01 09:00:00 EWR     39.9  28.0  62.2      0  2013 Jan  
## 10 2013-01-01 10:00:00 EWR     41    28.0  59.6      0  2013 Jan  
## #  with 26,105 more rows
…
